<svg width="40" height="40" viewBox="0 0 40 40" fill="none" xmlns="http://www.w3.org/2000/svg">
<g clip-path="url(#clip0_2351_972)">
<path d="M20 40C31.0457 40 40 31.0457 40 20C40 8.95431 31.0457 0 20 0C8.95431 0 0 8.95431 0 20C0 31.0457 8.95431 40 20 40Z" fill="#01A7E1"/>
<path fill-rule="evenodd" clip-rule="evenodd" d="M16.6733 24.0676L25.9474 15.6984C26.3545 15.3372 25.8586 15.161 25.3182 15.4887L13.8727 22.7095L8.92891 21.1665C7.86126 20.8396 7.85359 20.1059 9.16861 19.5785L28.4336 12.15C29.3135 11.7505 30.1627 12.3613 29.8268 13.708L26.546 29.1685C26.3169 30.2672 25.6531 30.5299 24.7333 30.0224L19.7356 26.33L17.3333 28.6659C17.0543 28.9373 16.8333 29.1659 16.3333 29.1659L16.6736 24.0678L16.6733 24.0676Z" fill="white"/>
</g>
<defs>
<clipPath id="clip0_2351_972">
<rect width="40" height="40" fill="white"/>
</clipPath>
</defs>
</svg>
